251,1,119,320,469
252,1,119,320,469
253,1,119,320,469
254,1,116,322,466
255,1,113,325,463
256,1,94,325,444
257,1,88,333,438
258,1,88,340,438
259,1,86,348,436
260,9,84,359,434
261,20,73,370,423
262,28,69,378,419
263,36,68,386,418
264,44,61,394,411
265,47,60,397,410
266,55,60,405,410
267,60,60,410,410
268,67,60,417,410
269,70,60,420,410
270,70,64,420,414
271,76,68,426,418
272,83,68,433,418
273,89,68,439,418
274,92,68,442,418
275,97,70,447,420
276,100,71,450,421
277,100,71,450,421
278,100,71,450,421
279,100,71,450,421
280,100,71,450,421
281,100,72,450,422
282,100,72,450,422
283,100,73,450,423
284,100,73,450,423
285,100,73,450,423
286,100,73,450,423
287,100,73,450,423
288,103,69,453,419
289,106,66,456,416
290,111,62,461,412
291,113,54,463,404
292,113,49,463,399
293,113,45,463,395
294,113,40,463,390
295,113,37,463,387
296,111,33,461,383
297,104,28,454,378
298,96,26,446,376
299,86,20,436,370
300,80,18,430,368
301,73,16,423,366
302,68,13,418,363
303,62,9,412,359
304,56,4,406,354
305,52,1,402,346
306,50,1,400,344
307,43,1,393,343
308,40,1,390,339
309,40,1,390,338
310,40,1,390,337
311,40,1,390,333
312,38,1,388,332
313,38,1,388,330
314,38,1,388,330
315,38,1,388,330
316,38,1,388,330
317,38,1,388,330
318,38,1,388,330
319,36,1,386,319
320,36,1,386,319
321,36,1,386,319
322,36,1,386,319
323,36,1,386,315
324,40,1,390,315
325,41,1,391,313
326,42,1,392,310
327,42,1,392,305
328,42,1,392,304
329,42,1,392,303
330,43,1,393,302
331,43,1,393,301
332,43,1,393,300
333,43,1,393,300
334,43,1,393,300
335,43,1,393,299
336,43,1,393,294
337,43,1,393,291
338,43,1,393,290
339,43,1,393,287
340,43,1,393,287
341,45,1,395,287
342,47,1,397,287
343,47,1,397,287
344,50,1,400,287
345,58,1,408,290
346,59,1,409,290
347,59,1,409,290
348,60,1,410,291
349,64,1,414,294
350,69,1,419,300
351,79,1,429,307
352,83,1,433,313
353,89,1,439,313
354,93,1,443,317
355,96,1,446,320
356,103,1,453,322
357,109,1,459,324
358,110,1,460,324
359,113,1,463,326
360,115,1,465,327
361,115,1,465,332
362,115,1,465,334
363,115,1,465,335
364,115,1,465,339
365,118,1,468,341
366,118,1,468,345
367,118,1,468,348
368,136,24,480,374
369,136,24,480,374
370,136,24,480,374
371,136,24,480,374
372,136,24,480,374
373,136,24,480,374
374,129,24,479,374
375,110,24,460,374
376,103,24,453,374
377,101,25,451,375
378,97,28,447,378
379,95,28,445,378
380,94,28,444,378
381,91,28,441,378
382,88,28,438,378
383,85,22,435,372
384,85,19,435,369
385,84,14,434,364
386,84,3,434,353
387,84,1,434,343
388,84,1,434,334
389,84,1,434,324
390,84,1,434,315
391,84,1,434,312
392,84,1,434,312
393,84,1,434,312
394,84,1,434,312
