289,22,1,372,205
290,9,1,359,230
291,1,1,346,254
292,1,1,346,269
293,1,1,346,283
294,1,1,346,283
295,1,1,346,289
296,1,1,346,329
297,1,2,346,352
298,1,2,346,352
299,1,17,351,367
300,1,17,351,367
301,3,24,353,374
302,3,48,353,398
303,11,56,361,406
304,15,61,365,411
305,19,73,369,423
306,39,74,389,424
307,41,77,391,427
308,41,80,391,430
309,41,84,391,434
310,42,87,392,437
311,42,87,392,437
312,43,89,393,439
313,47,90,397,440
314,53,90,403,440
315,56,90,406,440
316,58,90,408,440
317,59,92,409,442
318,60,92,410,442
319,60,92,410,442
320,60,92,410,442
321,60,92,410,442
322,62,92,412,442
323,62,92,412,442
324,62,92,412,442
325,62,92,412,442
326,62,92,412,442
327,62,92,412,442
328,62,92,412,442
329,62,92,412,442
330,62,92,412,442
331,62,92,412,442
332,61,90,411,440
333,60,90,410,440
334,60,90,410,440
335,60,88,410,438
336,60,88,410,438
337,60,88,410,438
338,60,88,410,438
339,60,88,410,438
340,60,89,410,439
341,60,89,410,439
342,60,90,410,440
343,60,90,410,440
344,60,90,410,440
345,60,90,410,440
346,60,90,410,440
347,60,90,410,440
348,60,90,410,440
349,62,90,412,440
350,65,90,415,440
351,68,90,418,440
352,76,90,426,440
353,76,90,426,440
354,76,90,426,440
355,76,90,426,440
356,76,90,426,440
357,72,90,422,440
358,72,90,422,440
359,72,90,422,440
360,72,90,422,440
361,72,92,422,442
362,72,94,422,444
363,72,96,422,446
364,72,96,422,446
365,72,98,422,448
366,72,98,422,448
367,72,99,422,449
368,72,101,422,451
369,72,101,422,451
370,72,103,422,453
371,74,105,424,455
372,76,106,426,456
373,76,106,426,456
374,76,107,426,457
375,76,107,426,457
376,83,110,433,460
377,83,111,433,461
378,84,111,434,461
379,84,111,434,461
380,84,111,434,461
381,84,111,434,461
382,84,111,434,461
383,83,111,433,461
384,83,111,433,461
385,83,111,433,461
386,82,111,432,461
387,82,111,432,461
388,81,111,431,461
389,81,111,431,461
390,81,111,431,461
391,80,111,430,461
392,80,111,430,461
393,80,111,430,461
394,78,111,428,461
395,78,111,428,461
396,78,111,428,461
397,78,111,428,461
398,78,110,428,460
399,77,109,427,459
400,77,107,427,457
401,76,106,426,456
402,76,105,426,455
403,75,104,425,454
404,75,102,425,452
405,74,101,424,451
406,74,100,424,450
407,73,98,423,448
408,73,97,423,447
409,72,96,422,446
410,72,95,422,445
411,71,93,421,443
412,71,92,421,442
413,70,91,420,441
414,70,89,420,439
415,69,88,419,438
416,69,87,419,437
417,68,86,418,436
418,68,84,418,434
419,67,83,417,433
420,67,82,417,432
421,66,80,416,430
422,66,79,416,429
423,65,78,415,428
424,65,77,415,427
425,64,75,414,425
426,64,74,414,424
427,63,73,413,423
428,63,72,413,422
429,63,70,413,420
430,62,69,412,419
431,62,68,412,418
432,61,66,411,416
433,61,65,411,415
434,61,65,411,415
435,57,65,407,415
436,55,65,405,415
437,55,65,405,415
438,55,65,405,415
439,55,65,405,415
440,55,65,405,415
441,57,65,407,415
442,57,62,407,412
443,57,56,407,406
444,57,54,407,404
445,57,54,407,404
446,55,53,405,403
447,51,38,401,388
448,51,38,401,388
449,51,37,401,387
450,51,35,401,385
451,51,33,401,383
452,51,31,401,381
453,51,29,401,379
454,51,28,401,378
455,51,26,401,376
456,51,24,401,374
457,51,22,401,372
458,51,19,401,369
459,51,19,401,369
460,51,19,401,369
461,51,19,401,369
462,47,19,397,369
463,44,18,394,368
464,44,16,394,366
465,44,16,394,366
466,44,16,394,366
467,42,15,392,365
468,42,15,392,365
469,42,15,392,365
470,42,15,392,365
471,42,15,392,365
472,42,15,392,365
