313,16,1,366,330
314,20,1,370,340
315,24,1,374,349
316,35,6,385,356
317,46,13,396,363
318,46,27,396,377
319,46,34,396,384
320,46,34,396,384
321,46,34,396,384
322,31,34,381,384
323,15,34,365,384
324,15,44,365,394
325,15,50,365,400
326,15,50,365,400
327,15,53,365,403
328,15,56,365,406
329,54,85,404,435
330,112,93,462,443
331,170,102,480,452
332,228,110,480,460
333,228,114,480,464
334,228,115,480,465
335,228,117,480,467
336,228,119,480,469
337,208,128,480,478
338,208,133,480,483
339,208,133,480,483
340,198,133,480,483
341,189,133,480,483
342,179,133,480,483
343,170,133,480,483
344,160,133,480,483
345,151,133,480,483
346,141,133,480,483
347,132,133,480,483
348,122,133,472,483
349,113,133,463,483
350,103,133,453,483
351,94,133,444,483
352,84,133,434,483
353,75,133,425,483
354,65,133,415,483
355,56,133,406,483
356,46,133,396,483
357,36,133,386,483
358,27,133,377,483
359,17,133,367,483
360,8,133,358,483
361,1,133,348,483
362,1,136,348,486
363,1,136,348,486
364,1,136,348,486
365,1,136,348,486
366,1,136,348,486
367,1,136,348,486
368,2,133,352,483
369,18,133,368,483
370,33,133,383,483
371,53,133,403,483
372,59,129,409,479
373,68,124,418,474
374,77,116,427,466
375,86,111,436,461
376,93,108,443,458
377,95,88,445,438
378,99,79,449,429
379,105,75,455,425
380,110,69,460,419
381,110,63,460,413
382,110,60,460,410
383,110,55,460,405
384,110,48,460,398
385,109,44,459,394
386,108,41,458,391
387,108,38,458,388
388,108,36,458,386
389,108,34,458,384
390,107,32,457,382
391,105,32,455,382
392,104,32,454,382
393,104,32,454,382
394,104,32,454,382
395,104,32,454,382
396,103,32,453,382
397,102,28,452,378
398,102,25,452,375
399,101,24,451,374
400,101,21,451,371
401,99,18,449,368
402,96,14,446,364
403,90,7,440,357
404,80,3,430,353
405,74,1,424,350
406,70,1,420,347
407,64,1,414,346
408,61,1,411,343
409,59,1,409,340
410,58,1,408,337
411,53,1,403,331
412,38,1,388,330
413,33,1,383,327
414,30,1,380,325
415,30,1,380,325
416,30,1,380,325
417,30,1,380,325
418,30,1,380,325
419,30,1,380,325
420,29,1,379,325
421,29,1,379,325
422,29,1,379,324
423,29,1,379,324
424,29,1,379,323
425,29,1,379,320
426,29,1,379,319
427,30,1,380,319
428,36,1,386,315
429,36,1,386,313
430,36,1,386,310
431,36,1,386,306
432,36,1,386,303
433,38,1,388,300
434,38,1,388,297
435,38,1,388,293
436,38,1,388,285
437,38,1,388,285
438,35,1,385,285
439,34,1,384,284
440,31,1,381,279
441,31,1,381,279
442,31,1,381,279
443,31,1,381,279
444,31,1,381,279
445,43,1,393,279
446,55,1,405,279
447,66,1,416,279
448,69,1,419,279
449,71,1,421,279
450,76,1,426,279
451,76,1,426,279
452,79,1,429,324
453,82,19,432,369
454,104,23,454,373
455,127,26,477,376
456,149,30,480,380
457,172,34,480,384
458,195,38,480,388
459,217,41,480,391
460,240,45,480,395
461,262,49,480,399
462,285,53,480,403
463,307,56,480,406
464,307,56,480,406
465,307,56,480,406
466,307,56,480,406
467,307,56,480,406
468,307,56,480,406
469,307,56,480,406
470,307,56,480,406
471,307,56,480,406
472,303,56,480,406
473,282,56,480,406
474,272,56,480,406
475,266,54,480,404
476,256,53,480,403
477,244,52,480,402
478,240,52,480,402
479,224,52,480,402
480,208,52,480,402
481,208,49,480,399
482,208,49,480,399
483,180,49,480,399
484,176,49,480,399
485,167,49,480,399
486,156,53,480,403
487,145,53,480,403
488,134,53,480,403
489,120,54,470,404
490,101,55,451,405
491,90,60,440,410
492,80,65,430,415
493,70,66,420,416
494,58,67,408,417
495,35,73,385,423
496,24,79,374,429
497,7,81,357,431
498,1,86,347,436
499,1,91,342,441
500,1,98,335,448
501,1,104,331,454
502,1,104,306,454
503,1,108,288,458
504,1,112,273,462
505,1,113,273,463
506,1,118,273,468
507,1,121,273,471
508,1,124,273,474
509,1,125,281,475
510,1,132,296,482
511,1,134,315,484
512,1,134,327,484
513,1,134,327,484
514,1,134,327,484
515,1,134,339,484
516,1,134,343,484
517,1,134,345,484
518,1,134,346,484
519,1,127,346,477
520,1,127,346,477
521,1,127,346,477
522,1,127,346,477
523,1,127,346,477
524,1,127,346,477
525,1,127,346,477
526,1,127,346,477
527,1,127,346,477
528,1,127,346,477
529,1,127,346,477
530,1,127,346,477
531,1,127,346,477
532,1,127,346,477
533,1,124,346,474
534,1,124,346,474
535,1,121,346,471
536,1,120,346,470
537,1,120,346,470
538,1,120,346,470
539,1,120,346,470
540,1,120,341,470
541,1,121,340,471
542,1,129,337,479
543,1,129,329,479
544,1,129,321,479
545,1,129,316,479
546,1,129,305,479
547,1,129,280,479
548,1,132,268,482
549,1,136,257,486
550,1,140,244,490
551,1,145,239,495
552,1,151,235,501
553,1,156,233,506
554,1,158,233,508
555,1,159,233,509
556,1,160,233,510
557,1,160,233,510
558,1,161,233,511
559,1,161,233,511
560,1,162,233,512
561,1,163,233,513
562,1,163,233,513
563,1,164,233,514
564,1,164,233,514
565,1,164,233,514
566,1,164,236,514
567,1,164,236,514
568,1,164,236,514
569,1,164,236,514
570,1,164,236,514
571,1,165,236,515
572,1,170,236,520
573,1,176,236,526
574,1,176,250,526
575,1,176,271,526
576,1,180,290,530
577,1,180,308,530
578,1,180,331,530
579,5,180,355,530
580,21,180,371,530
581,38,180,388,530
582,54,180,404,530
583,67,182,417,532
584,99,184,449,534
585,117,184,467,534
586,117,184,467,534
587,117,184,467,534
588,117,184,467,534
589,117,170,467,520
590,92,116,442,466
591,66,63,416,413
592,41,9,391,359
593,15,1,365,305
594,15,1,365,305
595,15,1,365,305
596,15,1,365,305
597,15,1,365,305
598,28,1,378,319
599,52,1,402,325
600,83,1,433,325
601,114,1,464,325
602,124,1,474,336
603,132,1,480,342
604,135,1,480,350
605,138,4,480,354
606,140,7,480,357
607,142,11,480,361
608,147,14,480,364
609,150,15,480,365
610,152,22,480,372
611,152,36,480,386
612,152,36,480,386
613,152,36,480,386
614,152,36,480,386
615,152,36,480,386
616,152,36,480,386
617,152,35,480,385
618,152,35,480,385
619,152,35,480,385
620,152,32,480,382
621,152,28,480,378
622,152,25,480,375
623,152,19,480,369
624,152,17,480,367
625,152,11,480,361
626,149,6,480,356
627,146,1,480,350
628,141,1,480,344
629,134,1,480,338
630,130,1,480,332
631,123,1,473,325
632,116,1,466,322
633,106,1,456,316
634,98,1,448,314
635,91,1,441,307
636,85,1,435,304
637,82,1,432,302
638,79,1,429,302
639,76,1,426,298
640,74,1,424,293
641,74,1,424,289
642,74,1,424,289
643,74,1,424,289
644,74,1,424,289
645,74,1,424,289
646,74,1,424,289
647,74,1,424,289
648,72,1,422,287
649,72,1,422,287
650,72,1,422,287
651,66,1,416,286
652,63,1,413,283
653,62,1,412,280
654,59,1,409,280
655,59,1,409,280
656,59,1,409,280
657,51,1,401,280
658,51,1,401,280
659,51,1,401,280
660,51,1,401,280
661,51,1,401,278
662,49,1,399,278
663,49,1,399,278
664,48,1,398,277
665,45,1,395,271
666,45,1,395,270
667,41,1,391,269
668,39,1,389,269
669,39,1,389,269
670,39,1,389,269
671,39,1,389,269
