731,1,1,325,319
732,1,1,325,324
733,1,1,325,324
734,1,1,325,324
735,1,1,325,324
736,1,1,326,324
737,1,1,340,336
738,1,1,340,336
739,1,1,340,336
740,1,10,345,360
741,1,21,349,371
742,9,34,359,384
743,15,34,365,384
744,19,40,369,390
745,24,47,374,397
746,28,53,378,403
747,32,59,382,409
748,37,66,387,416
749,41,72,391,422
750,55,75,405,425
751,55,75,405,425
752,55,75,405,425
753,55,75,405,425
754,57,77,407,427
755,58,79,408,429
756,60,82,410,432
757,62,84,412,434
758,62,84,412,434
759,62,84,412,434
760,62,84,412,434
761,62,87,412,437
762,62,87,412,437
763,62,88,412,438
764,62,88,412,438
765,62,88,412,438
766,62,88,412,438
767,62,88,412,438
768,62,86,412,436
769,62,83,412,433
770,62,81,412,431
771,62,79,412,429
772,58,79,408,429
773,57,79,407,429
774,57,79,407,429
775,57,79,407,429
776,57,79,407,429
777,57,79,407,429
778,60,82,410,432
779,60,82,410,432
780,60,82,410,432
781,60,82,410,432
782,60,82,410,432
783,63,82,413,432
784,63,83,413,433
785,65,83,415,433
786,65,83,415,433
787,65,83,415,433
788,65,83,415,433
789,65,83,415,433
790,65,83,415,433
791,65,83,415,433
792,65,83,415,433
793,65,85,415,435
794,66,90,416,440
795,68,93,418,443
796,68,95,418,445
797,69,95,419,445
798,69,95,419,445
799,69,97,419,447
800,71,102,421,452
801,72,102,422,452
802,72,102,422,452
803,72,102,422,452
804,72,102,422,452
805,72,102,422,452
806,72,102,422,452
807,85,117,435,467
808,85,117,435,467
809,85,119,435,469
810,85,119,435,469
811,85,119,435,469
812,83,119,433,469
813,83,119,433,469
814,83,118,433,468
815,73,101,423,451
816,67,97,417,447
817,66,96,416,446
818,65,95,415,445
819,64,94,414,444
820,64,92,414,442
821,64,92,414,442
822,64,91,414,441
823,64,91,414,441
824,64,91,414,441
825,64,91,414,441
826,64,91,414,441
827,64,91,414,441
828,63,90,413,440
829,59,88,409,438
830,56,88,406,438
831,56,88,406,438
832,56,88,406,438
833,56,88,406,438
834,56,88,406,438
835,56,88,406,438
836,56,88,406,438
837,56,88,406,438
838,56,88,406,438
839,56,86,406,436
840,56,84,406,434
841,56,81,406,431
842,56,79,406,429
843,53,79,403,429
844,53,79,403,429
845,53,79,403,429
846,53,79,403,429
847,53,79,403,429
848,53,79,403,429
849,53,79,403,429
850,53,78,403,428
851,53,78,403,428
852,53,78,403,428
853,53,78,403,428
854,53,78,403,428
855,53,82,403,432
856,60,86,410,436
857,60,86,410,436
858,60,89,410,439
859,60,91,410,441
860,60,93,410,443
861,60,93,410,443
862,63,93,413,443
863,65,93,415,443
864,65,93,415,443
865,65,93,415,443
866,65,93,415,443
867,65,93,415,443
868,65,93,415,443
869,65,93,415,443
870,65,93,415,443
871,65,93,415,443
872,65,93,415,443
873,65,93,415,443
874,65,93,415,443
875,65,91,415,441
876,60,84,410,434
877,60,84,410,434
878,60,84,410,434
879,60,84,410,434
